4

H    0.8970069431390100823	-0.0096909983211800003	0.9778062807553699054
H    -0.4431414242180199969	-0.7827971583609100170	-0.9775665688661400177
O    0.0646813840865499978	0.0321378082273600027	-0.6944019347100000017
O    -0.0625754342549599968	-0.0403262031652700040	0.6941685729447700792
