8

O          1.54200        0.71000       -0.25500
C          0.67400       -0.12600       -0.06700
C         -0.74900        0.18100        0.07100
C         -1.63300       -0.79800        0.27500
H          0.93700       -1.20000        0.01000
H         -1.04400        1.22500        0.00000
H         -1.31300       -1.83200        0.34200
H         -2.69200       -0.60100        0.38100
