14

B	0.000041	-0.000041	0.9383
H	0.000079	-0.000079	2.1168
B	1.271609	0	-0.181115
B	0.000011	-1.271609	-0.181115
B	-1.271658	-0.000011	-0.181086
B	0	1.271658	-0.181086
H	2.443283	0	-0.03951
H	0.00002	-2.443283	-0.03951
H	-2.443323	-0.00002	-0.039406
H	0	2.443323	-0.039406
H	0.958364	-0.958356	-1.073965
H	-0.958402	-0.958364	-1.073903
H	-0.958411	0.958402	-1.073842
H	0.958356	0.958411	-1.073903
