19

Mg	0	0	0
O	0	0	2.09
O	0	2.09	0
O	0	0	-2.09
O	0	-2.09	0
O	2.09	0	0
O	-2.09	0	0
H	0	0.793353	2.698761
H	0	-0.793353	2.698761
H	0	0.793353	-2.698761
H	0	-0.793353	-2.698761
H	0.793353	2.698761	0
H	-0.793353	2.698761	0
H	-0.793353	-2.698761	0
H	0.793353	-2.698761	0
H	2.698761	0	0.793353
H	2.698761	0	-0.793353
H	-2.698761	0	0.793353
H	-2.698761	0	-0.793353
