31

C	2.0407	0	0
C	0	0	1.7095
C	0	0	-1.7095
H	0	0	2.8052
H	0	0	-2.8052
C	1.429648	0.469511	1.329539
C	-1.121432	1.003356	1.329539
C	-0.308216	-1.472867	1.329539
C	1.429648	0.469511	-1.329539
C	-0.308216	-1.472867	-1.329539
C	-1.121432	1.003356	-1.329539
C	-1.02035	-1.767298	0
C	-1.02035	1.767298	0
H	2.08806	-1.093975	0
H	-1.991441	-1.261326	0
H	-0.09662	2.355301	0
H	3.087388	0.326735	0
H	-1.260734	-2.837124	0
H	-1.826655	2.510389	0
H	1.47784	1.563458	1.39043
H	-2.092914	0.498118	1.39043
H	0.615075	-2.061576	1.39043
H	1.47784	1.563458	-1.39043
H	-2.092914	0.498118	-1.39043
H	0.615075	-2.061576	-1.39043
H	2.104251	0.107489	2.11478
H	-1.145214	1.76859	2.11478
H	-0.959037	-1.876079	2.11478
H	2.104251	0.107489	-2.11478
H	-1.145214	1.76859	-2.11478
H	-0.959037	-1.876079	-2.11478
