  Pablo Baudin,             University of Valencia,       Spain       (Cholesky excitation energies)
@  Nuclear repulsion energy :   33.328584280453 Hartree
 EWMO - Energy Weighted Maximum Overlap - is a Huckel type method,
 Iter      Total energy        Error norm    Delta(E)  DIIS dim.
 + EJsr = sr Coulomb energy              26.9857157642
 Corrections needed for correct CI energy evaluation:
   1  Level shift: doubly occupied orbital energies shifted by -2.00D-01
 + EJsr = sr Coulomb energy              30.9468801162
 Corrections needed for correct CI energy evaluation:
   2  Level shift: doubly occupied orbital energies shifted by -1.00D-01
 + EJsr = sr Coulomb energy              29.9698543429
 Corrections needed for correct CI energy evaluation:
   3  Level shift: doubly occupied orbital energies shifted by -2.50D-02
 + EJsr = sr Coulomb energy              30.0011308853
 Corrections needed for correct CI energy evaluation:
 + EJsr = sr Coulomb energy              30.0092069900
 Corrections needed for correct CI energy evaluation:
 + EJsr = sr Coulomb energy              30.0093478051
 Corrections needed for correct CI energy evaluation:
 + EJsr = sr Coulomb energy              30.0092224996
 Corrections needed for correct CI energy evaluation:
 + EJsr = sr Coulomb energy              30.0092202980
 Corrections needed for correct CI energy evaluation:
@     Converged SCF energy, gradient:    -78.436218069655    4.53D-05
 + EJsr = sr Coulomb energy              30.0092202981
 Corrections needed for correct CI energy evaluation:
 Hartree-Fock electronic energy:        -111.764802349959
 Hartree-Fock total      energy:         -78.436218069506
 Hartree-Fock orbital energies, symmetry 1 ( A  ),    8 occupied SCF orbitals
@   Short-range Hartree-Fock total energy        :           -78.4362180695
@   = short-range MP2 second order energy        :           -78.4506329105
 Element no. Config.no.    Active energy      Total energy
SR 0-el. energy for input .STATE    1
   SR core    Hartree energy   :          26.033546625728
 - SR valence Hartree energy   :          -0.285269283155
 = Total eff. SR 0-el. energy  :          17.348423016110
CI-DFT energy for state no.    1
 SR eff. 1-el. energy          :           3.648752256592
 SR total Hartree energy       :          29.994038452807
 SR eff. total DFT energy      :          20.997175272702
 LR total CI  energy           :         -99.435943676931
 Total CI-DFT energy           :         -78.438768404229
 Decomposition of the auxiliary CI-srDFT energy:
 Auxiliary CI-srDFT energy for root 1:       -85.141362658703
@ Final CI energies and residuals in symmetry 1 (irrep A  )
 + EJsr = sr Coulomb energy              29.9940612535
 Corrections needed for correct CI energy evaluation:
 + EJsr = sr Coulomb energy              29.9940612535
 Corrections needed for correct CI energy evaluation:
 Total MC-srDFT energy    :           -78.438767648254242  (MACRO    1)
 - Inactive energy        :          -106.042643063653600
 - Active energy          :            -1.086055152121372
 - srDFT effective energy :            -4.638653712932734
 + EJsr = sr Coulomb energy              30.0114809132
 Corrections needed for correct CI energy evaluation:
 + EJsr = sr Coulomb energy              30.0114809132
 Corrections needed for correct CI energy evaluation:
 Total MC-srDFT energy    :           -78.438832449808530  (MACRO    2)
 - Inactive energy        :          -106.040713179792988
 - Active energy          :            -1.084035719232200
 - srDFT effective energy :            -4.642667831236804
 + EJsr = sr Coulomb energy              30.0111674524
 Corrections needed for correct CI energy evaluation:
 + EJsr = sr Coulomb energy              30.0111674524
 Corrections needed for correct CI energy evaluation:
 Total MC-srDFT energy    :           -78.438833193863630  (MACRO    3)
 - Inactive energy        :          -106.040743236532549
 - Active energy          :            -1.084058195075599
 - srDFT effective energy :            -4.642616042708956
@    Final MC-SRDFT energy:       -78.438833193864
@    Electronic energy:          -111.767417474317
                        Molecular wave function and energy
     Total energy        -78.4388331939 au (Hartrees)
     Non-relativistic + relativistic energy:   -78.4681861584 au
