**DALTON INPUT
.DIRECT
.RUN RESPONSE
**WAVE FUNCTIONS
.HF
*ORBITAL INPUT
.PUNCHOUTORBITALS
**RESPONSE
*LINEAR
.DIPLEN
.FREQUENCIES
3
0.0 0.1 0.2
**END OF DALTON INPUT


   Content of the .mol file
 ----------------------------

ATOMBASIS
Generated by Dalton Project

Atomtypes=2 Charge=0 Nosymmetry Angstrom
Charge=8.0 Atoms=1 Basis=STO-3G
O  0.0000000000 0.0000000000 0.0000000000
Charge=1.0 Atoms=2 Basis=STO-3G
H  0.7586020000 0.0000000000 0.5042840000
H  0.7586020000 0.0000000000 -0.5042840000

 RSPLR -- frequencies    :     0.000000  0.100000  0.200000

@ FREQUENCY INDEPENDENT SECOND ORDER PROPERTIES

@ -<< XDIPLEN  ; XDIPLEN  >> =  3.619411542157E+00
@ -<< XDIPLEN  ; YDIPLEN  >> = -4.050114251513E-17
@ -<< XDIPLEN  ; ZDIPLEN  >> = -6.028062095022E-15
@ -<< YDIPLEN  ; YDIPLEN  >> =  1.836817974591E-02
@ -<< YDIPLEN  ; ZDIPLEN  >> = -1.514981452681E-16
@ -<< ZDIPLEN  ; ZDIPLEN  >> =  2.903987404337E+00

@ FREQUENCY DEPENDENT SECOND ORDER PROPERTIES WITH FREQUENCY :

@    a.u.:  1.0000000D-01
@    cm-1:  2.1947463D+04
@    eV  :  2.7211384D+00
@  kJ/mol:  2.6254996D+02
@    nm  :  4.5563353D+02

@ -<< XDIPLEN  ; XDIPLEN  >> =  3.659105283093E+00
@ -<< XDIPLEN  ; YDIPLEN  >> = -4.327894183356E-17
@ -<< XDIPLEN  ; ZDIPLEN  >> = -6.050040521070E-15
@ -<< YDIPLEN  ; YDIPLEN  >> =  1.913822929515E-02
@ -<< YDIPLEN  ; ZDIPLEN  >> = -1.590548524890E-16
@ -<< ZDIPLEN  ; ZDIPLEN  >> =  2.949812179433E+00

@ FREQUENCY DEPENDENT SECOND ORDER PROPERTIES WITH FREQUENCY :

@    a.u.:  2.0000000D-01
@    cm-1:  4.3894926D+04
@    eV  :  5.4422768D+00
@  kJ/mol:  5.2509992D+02
@    nm  :  2.2781676D+02

@ -<< XDIPLEN  ; XDIPLEN  >> =  3.784514924578E+00
@ -<< XDIPLEN  ; YDIPLEN  >> = -5.339238540182E-17
@ -<< XDIPLEN  ; ZDIPLEN  >> = -6.138162461463E-15
@ -<< YDIPLEN  ; YDIPLEN  >> =  2.189150298453E-02
@ -<< YDIPLEN  ; ZDIPLEN  >> = -1.865797504198E-16
@ -<< ZDIPLEN  ; ZDIPLEN  >> =  3.097114637914E+00


 Time used in linear response calculation is      0.01 CPU seconds for symmetry 1

  Total CPU  time used in RESPONSE:   0.01 seconds
  Total wall time used in RESPONSE:   0.14 seconds