
   Content of the .dal input file
 ----------------------------------

**DALTON INPUT
.DIRECT
.RUN PROPERTIES
**PROPERTIES
.EXCITA
*EXCITA
.DIPSTR
.NEXCIT
5
.TRIPLET
**WAVE FUNCTIONS
.HF
*ORBITAL INPUT
.PUNCHOUTORBITALS
**END OF DALTON INPUT


   Content of the .mol file
 ----------------------------

ATOMBASIS
Generated by Dalton Project

Atomtypes=1 Charge=0 Nosymmetry Angstrom
Charge=2.0 Atoms=1 Basis=cc-pVTZ
He     0.000000     0.000000     0.000000


@               Triplet electronic excitation energies
                --------------------------------------

               ========================================
                 Sym.   Mode   Frequency    Frequency
                ex. st.  No.      (au)         (eV)
               ----------------------------------------
                   1      1     0.946303    25.750206
                   1      2     1.618701    44.047101
                   1      3     1.618701    44.047101
                   1      4     1.618701    44.047101
                   1      5     4.441804   120.867627
               ========================================
