 ---------------------------------------------
 # Opt HF/STO-3G SCF=(Conver=10) Symmetry=None
 ---------------------------------------------
 Charge =  0 Multiplicity = 1
 N(iso=14)            -0.07146  0.         0.
 H(iso=1)              0.35451  -0.94057   0.
 H(iso=1)              0.35451   0.47028  -0.81454
 H(iso=1)              0.35451   0.47028   0.81454
 NAtoms=    4 NActive=    4 NUniq=    4 SFac= 1.00D+00 NAtFMM=   60 NAOKFM=F Big=F
         Item               Value     Threshold  Converged?
 Maximum Force            0.000009     0.000450     YES
 RMS     Force            0.000004     0.000300     YES
 Maximum Displacement     0.000027     0.001800     YES
 RMS     Displacement     0.000015     0.001200     YES

                          Input orientation:
 ---------------------------------------------------------------------
 Center     Atomic      Atomic             Coordinates (Angstroms)
 Number     Number       Type             X           Y           Z
 ---------------------------------------------------------------------
      1          7           0       -0.071457   -0.000000    0.000000
      2          1           0        0.354512   -0.940569    0.000000
      3          1           0        0.354512    0.470285   -0.814544
      4          1           0        0.354512    0.470285    0.814544
 ---------------------------------------------------------------------
