------------------------------------------------------
 # NMR=SpinSpin HF/STO-3G SCF=(Conver=10) Symmetry=None
 ------------------------------------------------------
 1/38=1,172=1/1;
 2/12=2,15=3,17=6,18=5,40=1/2;
 3/6=3,11=9,25=1,30=1/1,2,3,8;
 4//1;
 5/5=2,6=10,38=5/2;
 8/6=1,10=90,11=11/1;
 10/13=100,31=1,45=16,47=1/2;
 6/7=2,8=2,9=2,10=2,28=1/1;
 99/9=1/99;
 -----------------------------------------------
 Gaussian input file generated by Dalton Project
 -----------------------------------------------
 Symbolic Z-matrix:
 Charge =  0 Multiplicity = 1
 O(iso=17)             0.00044   0.        0.00002
 H(iso=1)              0.75546   0.        0.5076
 H(iso=2)              0.75642   0.       -0.50614
                    Distance matrix (angstroms):
                    1          2          3
     1  O    0.000000
     2  H    0.909769   0.000000
     3  H    0.909779   1.013738   0.000000
 Fermi Contact (FC) contribution to K (Hz):
                1             2             3
      1  0.000000D+00
      2 -0.433292D+01  0.000000D+00
      3 -0.433332D+01 -0.100516D+01  0.000000D+00
 Fermi Contact (FC) contribution to J (Hz):
                1             2             3
      1  0.000000D+00
      2  0.183338D+02  0.000000D+00
      3  0.281461D+01 -0.481412D+01  0.000000D+00
 Spin-dipolar (SD) contribution to K (Hz):
                1             2             3
      1  0.000000D+00
      2 -0.136981D+00  0.000000D+00
      3 -0.137013D+00  0.710781D-01  0.000000D+00
 Spin-dipolar (SD) contribution to J (Hz):
                1             2             3
      1  0.000000D+00
      2  0.579602D+00  0.000000D+00
      3  0.889934D-01  0.340420D+00  0.000000D+00
 Paramagnetic spin-orbit (PSO) contribution to K (Hz):
                1             2             3
      1  0.000000D+00
      2  0.233250D+01  0.000000D+00
      3  0.233251D+01 -0.100494D-01  0.000000D+00
 Paramagnetic spin-orbit (PSO) contribution to J (Hz):
                1             2             3
      1  0.000000D+00
      2 -0.986943D+01  0.000000D+00
      3 -0.151503D+01 -0.481305D-01  0.000000D+00
 Diamagnetic spin-orbit (DSO) contribution to K (Hz):
                1             2             3
      1  0.000000D+00
      2  0.173591D+00  0.000000D+00
      3  0.173585D+00  0.151844D+00  0.000000D+00
 Diamagnetic spin-orbit (DSO) contribution to J (Hz):
                1             2             3
      1  0.000000D+00
      2 -0.734511D+00  0.000000D+00
      3 -0.112748D+00  0.727237D+00  0.000000D+00
 Total nuclear spin-spin coupling K (Hz):
                1             2             3
      1  0.000000D+00
      2 -0.196382D+01  0.000000D+00
      3 -0.196423D+01 -0.792292D+00  0.000000D+00
 Total nuclear spin-spin coupling J (Hz):
                1             2             3
      1  0.000000D+00
      2  0.830944D+01  0.000000D+00
      3  0.127582D+01 -0.379459D+01  0.000000D+00