33

C	1.212794	-0.716045	0.663127
C	-1.22651	-0.692288	0.663127
C	0.013716	1.408333	0.663127
C	1.212794	0.716045	0.663127
C	0.013716	-1.408333	0.663127
C	-1.22651	0.692288	0.663127
C	2.359282	-1.212155	0.038457
C	-2.229398	-1.43712	0.038457
C	-0.129884	2.649275	0.038457
C	2.359282	1.212155	0.038457
C	-0.129884	-2.649275	0.038457
C	-2.229398	1.43712	0.038457
C	2.272563	-2.507482	-0.476694
C	-3.307824	-0.714356	-0.476694
C	1.035261	3.221838	-0.476694
C	2.272563	2.507482	-0.476694
C	1.035261	-3.221838	-0.476694
C	-3.307824	0.714356	-0.476694
C	3.295594	0	-0.215857
C	-1.647797	-2.854069	-0.215857
C	-1.647797	2.854069	-0.215857
H	4.158303	0	0.460933
H	-2.079152	-3.601196	0.460933
H	-2.079152	3.601196	0.460933
H	3.68789	0	-1.235816
H	-1.843945	-3.193807	-1.235816
H	-1.843945	3.193807	-1.235816
H	3.109288	-2.953161	-1.005234
H	-4.112156	-1.216142	-1.005234
H	1.002868	4.169303	-1.005234
H	3.109288	2.953161	-1.005234
H	1.002868	-4.169303	-1.005234
H	-4.112156	1.216142	-1.005234
