14

C	1.6115	0	0
C	1.004754	-1.259921	0
C	-0.358592	-1.571096	0
C	-1.451911	-0.699204	0
C	-1.451911	0.699204	0
C	-0.358593	1.571096	0
C	1.004754	1.259921	0
H	2.6988	0	0
H	1.682674	-2.110007	0
H	-0.600539	-2.631135	0
H	-2.431535	-1.170966	0
H	-2.431535	1.170965	0
H	-0.60054	2.631135	0
H	1.682674	2.110007	0
